…
# Quais são as principais causas de atendimentos?

``` r
saude %>% count(descricao_do_cid, sort = TRUE)
```

    ## # A tibble: 2,658 x 2
    ##    descricao_do_cid                                                            n
    ##    <chr>                                                                   <int>
    ##  1 DOR LOMBAR BAIXA                                                         5882
    ##  2 DIARREIA E GASTROENTERITE DE ORIGEM INFECCIOSA PRESUMIVEL                4578
    ##  3 PROCEDIMENTO NAO REALIZADO DEVIDO A DECISAO DO PACIENTE POR OUTRAS RAZ…  4415
    ##  4 CEFALEIA                                                                 3965
    ##  5 DOR AGUDA                                                                3620
    ##  6 ANSIEDADE GENERALIZADA                                                   3367
    ##  7 OUTRAS DORES ABDOMINAIS E AS NAO ESPECIFICADAS                           3341
    ##  8 EXAME MEDICO GERAL                                                       3110
    ##  9 INFECCAO DO TRATO URINARIO DE LOCALIZACAO NAO ESPECIFICADA               3038
    ## 10 NAUSEA E VOMITOS                                                         2726
    ## # … with 2,648 more rows
…
